{
  "name": "lewdattack",
  "title": "Lewd Attack",
  "description": "Lewd Attack, the totally serious sexy RPG - v0.47",
  "version": "0.1.47",
  "minimumCoreVersion": "0.8.6",
  "compatibleCoreVersion": "9",
  "author": "4chan",
  "esmodules": ["module/lewdattack.mjs"],
  "styles": ["css/lewdattack.css"],
  "scripts": [],
  "packs": [
    {"name": "traits", "path": "./packs/traits.db", "system": "lewdattack", "label": "Traits", "entity": "Item", "type": "Item"}
  ],
  "languages": [
    {
      "lang": "en",
      "name": "English",
      "path": "lang/en.json"
    }
  ],
  "gridDistance": 5,
  "gridUnits": "ft",
  "primaryTokenAttribute": "hp",
  "secondaryTokenAttribute": "mp",
  "url": "https://gitlab.com/FCGudder/lewd-attack/",
  "manifest": "https://gitlab.com/FCGudder/lewd-attack/raw/master/system.json",
  "download": "https://gitlab.com/FCGudder/lewd-attack/-/archive/master/lewd-attack-master.zip",
  "license": "LICENSE.txt"
}
